(module LOGO (layer F.Cu)
  (at 0 0)
 (fp_text reference "G***" (at 0 0) (layer F.SilkS) hide
  (effects (font (thickness 0.3)))
  )
  (fp_text value "LOGO" (at 0.75 0) (layer F.SilkS) hide
  (effects (font (thickness 0.3)))
  )
  (fp_poly (pts (xy -8.359394 6.710476) (xy -8.279050 6.712880) (xy -8.228527 6.717758) (xy -8.201575 6.725824) (xy -8.191945 6.737789) (xy -8.191500 6.742266) (xy -8.201474 6.794052) (xy -8.228662 6.873198)
     (xy -8.268967 6.970489) (xy -8.318288 7.076709) (xy -8.372527 7.182643) (xy -8.427585 7.279075) (xy -8.437132 7.294498) (xy -8.598242 7.524075) (xy -8.770561 7.715736) (xy -8.958050 7.873276)
     (xy -9.164675 8.000489) (xy -9.186358 8.011596) (xy -9.285201 8.057510) (xy -9.381907 8.095679) (xy -9.470072 8.124458) (xy -9.543289 8.142204) (xy -9.595154 8.147273) (xy -9.619263 8.138023)
     (xy -9.616010 8.121847) (xy -9.596285 8.093637) (xy -9.557610 8.040929) (xy -9.506733 7.972869) (xy -9.479357 7.936639) (xy -9.331681 7.726018) (xy -9.182201 7.480824) (xy -9.028997 7.197851)
     (xy -8.985312 7.111694) (xy -8.931850 7.006425) (xy -8.881607 6.910358) (xy -8.839119 6.831965) (xy -8.808923 6.779718) (xy -8.801305 6.768042) (xy -8.760117 6.709833) (xy -8.475809 6.709833)
     (xy -8.359394 6.710476) )(layer F.Mask) (width  0.010000)
  )
  (fp_poly (pts (xy -13.843787 5.587620) (xy -13.763849 5.676466) (xy -13.664751 5.787416) (xy -13.555185 5.910690) (xy -13.443844 6.036511) (xy -13.345583 6.148081) (xy -13.051933 6.472672) (xy -12.767348 6.766316)
     (xy -12.483636 7.036720) (xy -12.192608 7.291594) (xy -11.886070 7.538645) (xy -11.788625 7.613324) (xy -11.618673 7.736787) (xy -11.462712 7.837166) (xy -11.306300 7.922744) (xy -11.134998 8.001805)
     (xy -11.049000 8.037545) (xy -10.953398 8.077971) (xy -10.898031 8.105576) (xy -10.882780 8.120331) (xy -10.907527 8.122210) (xy -10.972152 8.111185) (xy -11.076536 8.087227) (xy -11.165416 8.064768)
     (xy -11.498721 7.962431) (xy -11.848107 7.824623) (xy -12.209826 7.653278) (xy -12.580131 7.450326) (xy -12.955276 7.217700) (xy -13.331512 6.957333) (xy -13.375204 6.925312) (xy -13.457188 6.862479)
     (xy -13.547799 6.789067) (xy -13.641680 6.709897) (xy -13.733472 6.629789) (xy -13.817817 6.553561) (xy -13.889357 6.486033) (xy -13.942731 6.432025) (xy -13.972583 6.396356) (xy -13.976389 6.384612)
     (xy -13.984165 6.363914) (xy -14.016565 6.316596) (xy -14.069782 6.247398) (xy -14.140006 6.161065) (xy -14.223430 6.062339) (xy -14.316245 5.955963) (xy -14.359544 5.907437) (xy -14.418461 5.839201)
     (xy -14.463816 5.781532) (xy -14.489803 5.742119) (xy -14.493571 5.729963) (xy -14.475138 5.709879) (xy -14.429571 5.669541) (xy -14.363341 5.614442) (xy -14.282918 5.550075) (xy -14.266171 5.536941)
     (xy -14.045657 5.364579) (xy -13.843787 5.587620) )(layer F.Mask) (width  0.010000)
  )
  (fp_poly (pts (xy -20.465109 3.109537) (xy -19.977893 3.130627) (xy -19.496633 3.161844) (xy -19.028993 3.202806) (xy -18.582637 3.253127) (xy -18.165230 3.312424) (xy -17.917583 3.354766) (xy -17.520347 3.434628)
     (xy -17.129242 3.526465) (xy -16.750360 3.628423) (xy -16.389789 3.738647) (xy -16.053618 3.855282) (xy -15.747937 3.976473) (xy -15.493048 4.093282) (xy -15.395952 4.143584) (xy -15.288335 4.202904)
     (xy -15.176312 4.267458) (xy -15.065997 4.333464) (xy -14.963504 4.397141) (xy -14.874948 4.454705) (xy -14.806441 4.502374) (xy -14.764098 4.536366) (xy -14.753166 4.551007) (xy -14.766269 4.578704)
     (xy -14.801748 4.630601) (xy -14.853856 4.699256) (xy -14.916850 4.777224) (xy -14.984983 4.857064) (xy -15.017750 4.893783) (xy -15.123583 5.010432) (xy -15.271750 4.908030) (xy -15.373265 4.843280)
     (xy -15.503917 4.768016) (xy -15.653547 4.687463) (xy -15.811993 4.606848) (xy -15.969096 4.531398) (xy -16.114694 4.466340) (xy -16.192500 4.434390) (xy -16.539943 4.306675) (xy -16.897040 4.193389)
     (xy -17.268672 4.093495) (xy -17.659724 4.005957) (xy -18.075080 3.929736) (xy -18.519623 3.863798) (xy -18.998238 3.807105) (xy -19.277486 3.779515) (xy -19.970547 3.726160) (xy -20.637766 3.697259)
     (xy -21.287835 3.692782) (xy -21.929447 3.712697) (xy -22.571295 3.756973) (xy -22.685201 3.767310) (xy -23.083776 3.809165) (xy -23.471407 3.858534) (xy -23.844132 3.914618) (xy -24.197987 3.976619)
     (xy -24.529011 4.043739) (xy -24.833240 4.115178) (xy -25.106713 4.190138) (xy -25.345467 4.267820) (xy -25.530548 4.340786) (xy -25.626205 4.381158) (xy -25.693864 4.401141) (xy -25.741738 4.396875)
     (xy -25.778040 4.364499) (xy -25.810981 4.300153) (xy -25.848774 4.199976) (xy -25.852571 4.189413) (xy -25.891481 4.078045) (xy -25.915377 3.998782) (xy -25.924901 3.944396) (xy -25.920695 3.907660)
     (xy -25.903403 3.881349) (xy -25.881541 3.863621) (xy -25.838483 3.841778) (xy -25.761781 3.811279) (xy -25.658671 3.774474) (xy -25.536387 3.733710) (xy -25.402164 3.691339) (xy -25.263237 3.649708)
     (xy -25.126841 3.611168) (xy -25.008416 3.580110) (xy -24.677575 3.501928) (xy -24.325733 3.427080) (xy -23.961835 3.357049) (xy -23.594827 3.293321) (xy -23.233657 3.237378) (xy -22.887268 3.190706)
     (xy -22.564608 3.154788) (xy -22.320250 3.134139) (xy -21.885852 3.110876) (xy -21.426753 3.099278) (xy -20.950617 3.098959) (xy -20.465109 3.109537) )(layer F.Mask) (width  0.010000)
  )
  (fp_poly (pts (xy 9.186334 -6.223620) (xy 2.196042 -6.217880) (xy -4.794250 -6.212139) (xy -5.179374 -6.143758) (xy -5.609167 -6.063269) (xy -6.003989 -5.980181) (xy -6.371201 -5.892507) (xy -6.718161 -5.798259)
     (xy -7.052227 -5.695447) (xy -7.380759 -5.582084) (xy -7.683034 -5.467321) (xy -8.126598 -5.280092) (xy -8.529150 -5.085157) (xy -8.891389 -4.882054) (xy -9.214012 -4.670321) (xy -9.497717 -4.449497)
     (xy -9.743201 -4.219120) (xy -9.951162 -3.978730) (xy -9.969221 -3.955052) (xy -10.099507 -3.760565) (xy -10.191645 -3.570021) (xy -10.247163 -3.376445) (xy -10.267586 -3.172862) (xy -10.254444 -2.952297)
     (xy -10.225881 -2.783041) (xy -10.149102 -2.514521) (xy -10.033081 -2.257882) (xy -9.880006 -2.016312) (xy -9.692069 -1.793000) (xy -9.471457 -1.591134) (xy -9.339631 -1.492250) (xy -9.188167 -1.386417)
     (xy -9.187250 -1.105958) (xy -9.187287 -1.002636) (xy -9.188031 -0.916594) (xy -9.189362 -0.855586) (xy -9.191157 -0.827366) (xy -9.191625 -0.826329) (xy -9.212479 -0.834422) (xy -9.257099 -0.853310)
     (xy -9.267434 -0.857783) (xy -9.308056 -0.884182) (xy -9.371918 -0.936209) (xy -9.453447 -1.008476) (xy -9.547071 -1.095596) (xy -9.647218 -1.192179) (xy -9.748317 -1.292839) (xy -9.844795 -1.392187)
     (xy -9.931079 -1.484835) (xy -10.001598 -1.565395) (xy -10.011139 -1.576917) (xy -10.212823 -1.845143) (xy -10.373539 -2.108611) (xy -10.494111 -2.369310) (xy -10.575364 -2.629226) (xy -10.618122 -2.890345)
     (xy -10.625666 -3.057912) (xy -10.611702 -3.290825) (xy -10.568480 -3.512410) (xy -10.494010 -3.726783) (xy -10.386301 -3.938058) (xy -10.243362 -4.150350) (xy -10.063200 -4.367773) (xy -9.917227 -4.521849)
     (xy -9.751818 -4.681760) (xy -9.584623 -4.828434) (xy -9.409712 -4.965924) (xy -9.221153 -5.098280) (xy -9.013017 -5.229555) (xy -8.779372 -5.363801) (xy -8.514289 -5.505068) (xy -8.371416 -5.577933)
     (xy -7.795293 -5.848424) (xy -7.218919 -6.078823) (xy -6.636501 -6.271007) (xy -6.042246 -6.426855) (xy -5.430362 -6.548243) (xy -5.323416 -6.565707) (xy -5.293974 -6.570439) (xy -5.266464 -6.574865)
     (xy -5.239458 -6.579002) (xy -5.211530 -6.582866) (xy -5.181250 -6.586472) (xy -5.147193 -6.589838) (xy -5.107930 -6.592979) (xy -5.062035 -6.595911) (xy -5.008078 -6.598650) (xy -4.944634 -6.601214)
     (xy -4.870273 -6.603617) (xy -4.783570 -6.605876) (xy -4.683096 -6.608007) (xy -4.567423 -6.610027) (xy -4.435125 -6.611951) (xy -4.284773 -6.613796) (xy -4.114941 -6.615577) (xy -3.924200 -6.617311)
     (xy -3.711123 -6.619015) (xy -3.474283 -6.620703) (xy -3.212251 -6.622393) (xy -2.923601 -6.624101) (xy -2.606906 -6.625842) (xy -2.260736 -6.627633) (xy -1.883665 -6.629490) (xy -1.474266 -6.631430)
     (xy -1.031111 -6.633467) (xy -0.552772 -6.635619) (xy -0.037821 -6.637902) (xy 0.515168 -6.640332) (xy 1.107623 -6.642924) (xy 1.740973 -6.645696) (xy 1.746250 -6.645719) (xy 2.218147 -6.647821)
     (xy 2.689074 -6.649986) (xy 3.156476 -6.652199) (xy 3.617796 -6.654446) (xy 4.070478 -6.656712) (xy 4.511967 -6.658984) (xy 4.939707 -6.661247) (xy 5.351142 -6.663486) (xy 5.743716 -6.665687)
     (xy 6.114873 -6.667836) (xy 6.462058 -6.669918) (xy 6.782714 -6.671919) (xy 7.074286 -6.673824) (xy 7.334218 -6.675620) (xy 7.559954 -6.677292) (xy 7.748937 -6.678825) (xy 7.898613 -6.680206)
     (xy 7.921625 -6.680441) (xy 9.186334 -6.693648) (xy 9.186334 -6.223620) )(layer F.Mask) (width  0.010000)
  )
)
